<?xml version="1.0" encoding="UTF-8"?>
<ModuleFile xmlns:xsi="http://www.w3.org/2001/XMLSchema-instance">
    <UiMod name="sclickToAbandonQuest" version="1.0" date="1/1/2018">
        <VersionSettings gameVersion="1.4.6" windowsVersion="1.0" savedVariablesVersion="1.0"/>

        <Author name="a" />
        <Description text="a"/>

        <Dependencies>
            <!-- <Dependency name="LibSlash"/> -->
            <!-- <Dependency name="EA_ActionBars"/> -->
        </Dependencies>

        <Files>
            <File name="sclickToAbandonQuest.lua" />
        </Files>
        
        <SavedVariables>
            <!-- <SavedVariable name="Addon.Settings" /> -->
        </SavedVariables>

        <OnInitialize>
            <!-- <CreateWindow name="Addon" show="true" /> -->
            <CallFunction name="clickToAbandon.Initialize" />
        </OnInitialize>

        <OnUpdate>
            <!-- <CallFunction name="addon.Update" /> -->
        </OnUpdate>

        <OnShutdown/>
        
        <WARInfo>
            <Categories>
                <!-- <Category name="CRAFTING" /> -->
            </Categories>
        </WARInfo>

    </UiMod>
</ModuleFile>
